631,5,100033806792151
632,5,100828984082432
633,5,101629210098393
634,5,102434508843424
635,5,103244904396875
636,5,104060420914176
637,5,104881082626957
638,5,105706913843168
639,5,106537938947199
640,5,107374182400000
641,5,108215668739201
642,5,109062422579232
643,5,109914468611443
644,5,110771831604224
645,5,111634536403125
646,5,112502607930976
647,5,113376071188007
648,5,114254951251968
649,5,115139273278249
650,5,116029062500000
651,5,116924344228251
652,5,117825143852032
653,5,118731486838493
654,5,119643398733024
655,5,120560905159375
656,5,121484031819776
657,5,122412804495057
658,5,123347249044768
659,5,124287391407299
660,5,125233257600000
661,5,126184873719301
662,5,127142265940832
663,5,128105460519543
664,5,129074483789824
665,5,130049362165625
666,5,131030122140576
667,5,132016790288107
668,5,133009393261568
669,5,134007957794349
670,5,135012510700000
671,5,136023078872351
672,5,137039689285632
673,5,138062368994593
674,5,139091145134624
675,5,140126044921875
676,5,141167095653376
677,5,142214324707157
678,5,143267759542368
679,5,144327427699399
680,5,145393356800000
681,5,146465574547401
682,5,147544108726432
683,5,148628987203643
684,5,149720237927424
685,5,150817888928125
686,5,151921968318176
687,5,153032504292207
688,5,154149525127168
689,5,155273059182449
690,5,156403134900000
691,5,157539780804451
692,5,158683025503232
693,5,159832897686693
694,5,160989426128224
695,5,162152639684375
696,5,163322567294976
697,5,164499237983257
698,5,165682680855968
699,5,166872925103499
700,5,168070000000000
701,5,169273934903501
702,5,170484759256032
703,5,171702502583743
704,5,172927194497024
705,5,174158864690625
706,5,175397542943776
707,5,176643259120307
708,5,177896043168768
709,5,179155925122549
710,5,180422935100000
711,5,181697103304551
712,5,182978460024832
713,5,184267035634793
714,5,185562860593824
715,5,186865965446875
716,5,188176380824576
717,5,189494137443357
718,5,190819266105568
719,5,192151797699599
720,5,193491763200000
721,5,194839193667601
722,5,196194120249632
723,5,197556574179843
724,5,198926586778624
725,5,200304189453125
726,5,201689413697376
727,5,203082291092407
728,5,204482853306368
729,5,205891132094649
730,5,207307159300000
731,5,208730966852651
732,5,210162586770432
733,5,211602051158893
734,5,213049392211424
735,5,214504642209375
736,5,215967833522176
737,5,217438998607457
738,5,218918170011168
739,5,220405380367699
740,5,221900662400000
741,5,223404048919701
742,5,224915572827232
743,5,226435267111943
744,5,227963164852224
745,5,229499299215625
746,5,231043703458976
747,5,232596410928507
748,5,234157455059968
749,5,235726869378749
750,5,237304687500000
751,5,238890943128751
752,5,240485670060032
753,5,242088902178993
754,5,243700673461024
755,5,245321017971875
756,5,246949969867776
757,5,248587563395557
758,5,250233832892768
759,5,251888812787799
760,5,253552537600000
761,5,255225041939801
762,5,256906360508832
763,5,258596528100043
764,5,260295579597824
765,5,262003549978125
766,5,263720474308576
767,5,265446387748607
768,5,267181325549568
769,5,268925323054849
770,5,270678415700000
771,5,272440639012851
772,5,274212028613632
773,5,275992620215093
774,5,277782449622624
775,5,279581552734375
776,5,281389965541376
777,5,283207724127657
778,5,285034864670368
779,5,286871423439899
780,5,288717436800000
781,5,290572941207901
782,5,292437973214432
783,5,294312569464143
784,5,296196766695424
785,5,298090601740625
786,5,299994111526176
787,5,301907333072707
788,5,303830303495168
789,5,305763060002949
790,5,307705639900000
791,5,309658080584951
792,5,311620419551232
793,5,313592694387193
794,5,315574942776224
795,5,317567202496875
796,5,319569511422976
797,5,321581907523757
798,5,323604428863968
799,5,325637113603999
800,5,327680000000000
801,5,329733126404001
802,5,331796531264032
803,5,333870253124243
804,5,335954330625024
805,5,338048802503125
806,5,340153707591776
807,5,342269084820807
808,5,344394973216768
809,5,346531411903049
810,5,348678440100000
811,5,350836097125051
812,5,353004422392832
813,5,355183455415293
814,5,357373235801824
815,5,359573803259375
816,5,361785197592576
817,5,364007458703857
818,5,366240626593568
819,5,368484741360099
820,5,370739843200000
821,5,373005972408101
822,5,375283169377632
823,5,377571474600343
824,5,379870928666624
825,5,382181572265625
826,5,384503446185376
827,5,386836591312907
828,5,389181048634368
829,5,391536859235149
830,5,393904064300000
831,5,396282705113151
832,5,398672823058432
833,5,401074459619393
834,5,403487656379424
835,5,405912455021875
836,5,408348897330176
837,5,410797025187957
838,5,413256880579168
839,5,415728505588199
840,5,418211942400000
841,5,420707233300201
842,5,423214420675232
843,5,425733547012443
844,5,428264654900224
845,5,430807787028125
846,5,433362986186976
847,5,435930295269007
848,5,438509757267968
849,5,441101415279249
850,5,443705312500000
851,5,446321492229251
852,5,448949997868032
853,5,451590872919493
854,5,454244160989024
855,5,456909905784375
856,5,459588151115776
857,5,462278940896057
858,5,464982319140768
859,5,467698329968299
860,5,470427017600000
861,5,473168426360301
862,5,475922600676832
863,5,478689585080543
864,5,481469424205824
865,5,484262162790625
866,5,487067845676576
867,5,489886517809107
868,5,492718224237568
869,5,495563010115349
870,5,498420920700000
871,5,501292001353351
872,5,504176297541632
873,5,507073854835593
874,5,509984718910624
875,5,512908935546875
876,5,515846550629376
877,5,518797610148157
878,5,521762160198368
879,5,524740246980399
880,5,527731916800000
881,5,530737216068401
882,5,533756191302432
883,5,536788889124643
884,5,539835356263424
885,5,542895639553125
886,5,545969785934176
887,5,549057842453207
888,5,552159856263168
889,5,555275874623449
890,5,558405944900000
891,5,561550114565451
892,5,564708431199232
893,5,567880942487693
894,5,571067696224224
895,5,574268740309375
896,5,577484122750976
897,5,580713891664257
898,5,583958095271968
899,5,587216781904499
900,5,590490000000000
901,5,593777798104501
902,5,597080224872032
903,5,600397329064743
904,5,603729159553024
905,5,607075765315625
906,5,610437195439776
907,5,613813499121307
908,5,617204725664768
909,5,620610924483549
910,5,624032145100000
911,5,627468437145551
912,5,630919850360832
913,5,634386434595793
914,5,637868239809824
915,5,641365316071875
916,5,644877713560576
917,5,648405482564357
918,5,651948673481568
919,5,655507336820599
920,5,659081523200000
921,5,662671283348601
922,5,666276668105632
923,5,669897728420843
924,5,673534515354624
925,5,677187080078125
926,5,680855473873376
927,5,684539748133407
928,5,688239954362368
929,5,691956144175649
930,5,695688369300000
931,5,699436681573651
932,5,703201132946432
933,5,706981775479893
934,5,710778661347424
935,5,714591842834375
936,5,718421372338176
937,5,722267302368457
938,5,726129685547168
939,5,730008574608699
940,5,733904022400000
941,5,737816081880701
942,5,741744806123232
943,5,745690248312943
944,5,749652461748224
945,5,753631499840625
946,5,757627416114976
947,5,761640264209507
948,5,765670097875968
949,5,769716970979749
950,5,773780937500000
951,5,777862051529751
952,5,781960367276032
953,5,786075939059993
954,5,790208821317024
955,5,794359068596875
956,5,798526735563776
957,5,802711876996557
958,5,806914547788768
959,5,811134802948799
960,5,815372697600000
961,5,819628286980801
962,5,823901626444832
963,5,828192771461043
964,5,832501777613824
965,5,836828700603125
966,5,841173596244576
967,5,845536520469607
968,5,849917529325568
969,5,854316678975849
970,5,858734025700000
971,5,863169625893851
972,5,867623536069632
973,5,872095812856093
974,5,876586512998624
975,5,881095693359375
976,5,885623410917376
977,5,890169722768657
978,5,894734686126368
979,5,899318358320899
980,5,903920796800000
981,5,908542059128901
982,5,913182202990432
983,5,917841286185143
984,5,922519366631424
985,5,927216502365625
986,5,931932751542176
987,5,936668172433707
988,5,941422823431168
989,5,946196763043949
990,5,950990049900000
991,5,955802742745951
992,5,960634900447232
993,5,965486581988193
994,5,970357846472224
995,5,975248753121875
996,5,980159361278976
997,5,985089730404757
998,5,990039920079968
216,6,101559956668416
217,6,104413920565969
218,6,107334407093824
219,6,110322650964681
220,6,113379904000000
221,6,116507435287321
222,6,119706531338304
223,6,122978496247489
224,6,126324651851776
225,6,129746337890625
226,6,133244912166976
227,6,136821750708889
228,6,140478247931904
229,6,144215816802121
230,6,148035889000000
231,6,151939915084881
232,6,155929364660224
233,6,160005726539569
234,6,164170508913216
235,6,168425239515625
236,6,172771465793536
237,6,177210755074809
238,6,181744694737984
239,6,186374892382561
240,6,191102976000000
241,6,195930594145441
242,6,200859416110144
243,6,205891132094649
244,6,211027453382656
245,6,216270112515625
246,6,221620863468096
247,6,227081481823729
248,6,232653764952064
249,6,238339532186001
250,6,244140625000000
251,6,250058907189001
252,6,256096265048064
253,6,262254607552729
254,6,268535866540096
255,6,274941996890625
256,6,281474976710656
257,6,288136807515649
258,6,294929514414144
259,6,301855146292441
260,6,308915776000000
261,6,316113500535561
262,6,323450441233984
263,6,330928743953809
264,6,338550579265536
265,6,346318142640625
266,6,354233654641216
267,6,362299361110569
268,6,370517533364224
269,6,378890468381881
270,6,387420489000000
271,6,396109944105121
272,6,404961208827904
273,6,413976684737889
274,6,423158800038976
275,6,432510009765625
276,6,442032795979776
277,6,451729667968489
278,6,461603162442304
279,6,471655843734321
280,6,481890304000000
281,6,492309163417681
282,6,502915070389824
283,6,513710701744969
284,6,524698762940416
285,6,535881988265625
286,6,547263141046336
287,6,558845013849409
288,6,570630428688384
289,6,582622237229761
290,6,594823321000000
291,6,607236591593241
292,6,619864990879744
293,6,632711491215049
294,6,645779095649856
295,6,659070838140625
296,6,672589783760896
297,6,686339028913329
298,6,700321701542464
299,6,714540961348201
300,6,729000000000000
301,6,743702041351801
302,6,758650341657664
303,6,773848189788129
304,6,789298907447296
305,6,805005849390625
306,6,820972403643456
307,6,837201991720249
308,6,853698068844544
309,6,870464124169641
310,6,887503681000000
311,6,904820297013361
312,6,922417564483584
313,6,940299110504209
314,6,958468597212736
315,6,976929722015625
316,6,995686217814016
100,7,100000000000000
101,7,107213535210701
102,7,114868566764928
103,7,122987386542487
104,7,131593177923584
105,7,140710042265625
106,7,150363025899136
107,7,160578147647843
108,7,171382426877952
109,7,182803912081669
110,7,194871710000000
111,7,207616015289871
112,7,221068140740608
113,7,235260548044817
114,7,250226879128704
115,7,266001988046875
116,7,282621973446656
117,7,300124211606973
118,7,318547390056832
119,7,337931541778439
120,7,358318080000000
121,7,379749833583241
122,7,402271083010688
123,7,425927596977747
124,7,450766669594624
125,7,476837158203125
126,7,504189521813376
127,7,532875860165503
128,7,562949953421312
129,7,594467302491009
130,7,627485170000000
131,7,662062621900811
132,7,698260569735168
133,7,736141813551277
134,7,775771085481344
135,7,817215093984375
136,7,860542568759296
137,7,905824306333433
138,7,953133216331392
57,8,111429157112001
58,8,128063081718016
59,8,146830437604321
60,8,167961600000000
61,8,191707312997281
62,8,218340105584896
63,8,248155780267521
64,8,281474976710656
65,8,318644812890625
66,8,360040606269696
67,8,406067677556641
68,8,457163239653376
69,8,513798374428641
70,8,576480100000000
71,8,645753531245761
72,8,722204136308736
73,8,806460091894081
74,8,899194740203776
36,9,101559956668416
37,9,129961739795077
38,9,165216101262848
39,9,208728361158759
40,9,262144000000000
41,9,327381934393961
42,9,406671383849472
43,9,502592611936843
44,9,618121839509504
45,9,756680642578125
46,9,922190162669056
26,10,141167095653376
27,10,205891132094649
28,10,296196766695424
29,10,420707233300201
30,10,590490000000000
31,10,819628286980801
