216,3,10077696
217,3,10218313
218,3,10360232
219,3,10503459
220,3,10648000
221,3,10793861
222,3,10941048
223,3,11089567
224,3,11239424
225,3,11390625
226,3,11543176
227,3,11697083
228,3,11852352
229,3,12008989
230,3,12167000
231,3,12326391
232,3,12487168
233,3,12649337
234,3,12812904
235,3,12977875
236,3,13144256
237,3,13312053
238,3,13481272
239,3,13651919
240,3,13824000
241,3,13997521
242,3,14172488
243,3,14348907
244,3,14526784
245,3,14706125
246,3,14886936
247,3,15069223
248,3,15252992
249,3,15438249
250,3,15625000
251,3,15813251
252,3,16003008
253,3,16194277
254,3,16387064
255,3,16581375
256,3,16777216
257,3,16974593
258,3,17173512
259,3,17373979
260,3,17576000
261,3,17779581
262,3,17984728
263,3,18191447
264,3,18399744
265,3,18609625
266,3,18821096
267,3,19034163
268,3,19248832
269,3,19465109
270,3,19683000
271,3,19902511
272,3,20123648
273,3,20346417
274,3,20570824
275,3,20796875
276,3,21024576
277,3,21253933
278,3,21484952
279,3,21717639
280,3,21952000
281,3,22188041
282,3,22425768
283,3,22665187
284,3,22906304
285,3,23149125
286,3,23393656
287,3,23639903
288,3,23887872
289,3,24137569
290,3,24389000
291,3,24642171
292,3,24897088
293,3,25153757
294,3,25412184
295,3,25672375
296,3,25934336
297,3,26198073
298,3,26463592
299,3,26730899
300,3,27000000
301,3,27270901
302,3,27543608
303,3,27818127
304,3,28094464
305,3,28372625
306,3,28652616
307,3,28934443
308,3,29218112
309,3,29503629
310,3,29791000
311,3,30080231
312,3,30371328
313,3,30664297
314,3,30959144
315,3,31255875
316,3,31554496
317,3,31855013
318,3,32157432
319,3,32461759
320,3,32768000
321,3,33076161
322,3,33386248
323,3,33698267
324,3,34012224
325,3,34328125
326,3,34645976
327,3,34965783
328,3,35287552
329,3,35611289
330,3,35937000
331,3,36264691
332,3,36594368
333,3,36926037
334,3,37259704
335,3,37595375
336,3,37933056
337,3,38272753
338,3,38614472
339,3,38958219
340,3,39304000
341,3,39651821
342,3,40001688
343,3,40353607
344,3,40707584
345,3,41063625
346,3,41421736
347,3,41781923
348,3,42144192
349,3,42508549
350,3,42875000
351,3,43243551
352,3,43614208
353,3,43986977
354,3,44361864
355,3,44738875
356,3,45118016
357,3,45499293
358,3,45882712
359,3,46268279
360,3,46656000
361,3,47045881
362,3,47437928
363,3,47832147
364,3,48228544
365,3,48627125
366,3,49027896
367,3,49430863
368,3,49836032
369,3,50243409
370,3,50653000
371,3,51064811
372,3,51478848
373,3,51895117
374,3,52313624
375,3,52734375
376,3,53157376
377,3,53582633
378,3,54010152
379,3,54439939
380,3,54872000
381,3,55306341
382,3,55742968
383,3,56181887
384,3,56623104
385,3,57066625
386,3,57512456
387,3,57960603
388,3,58411072
389,3,58863869
390,3,59319000
391,3,59776471
392,3,60236288
393,3,60698457
394,3,61162984
395,3,61629875
396,3,62099136
397,3,62570773
398,3,63044792
399,3,63521199
400,3,64000000
401,3,64481201
402,3,64964808
403,3,65450827
404,3,65939264
405,3,66430125
406,3,66923416
407,3,67419143
408,3,67917312
409,3,68417929
410,3,68921000
411,3,69426531
412,3,69934528
413,3,70444997
414,3,70957944
415,3,71473375
416,3,71991296
417,3,72511713
418,3,73034632
419,3,73560059
420,3,74088000
421,3,74618461
422,3,75151448
423,3,75686967
424,3,76225024
425,3,76765625
426,3,77308776
427,3,77854483
428,3,78402752
429,3,78953589
430,3,79507000
431,3,80062991
432,3,80621568
433,3,81182737
434,3,81746504
435,3,82312875
436,3,82881856
437,3,83453453
438,3,84027672
439,3,84604519
440,3,85184000
441,3,85766121
442,3,86350888
443,3,86938307
444,3,87528384
445,3,88121125
446,3,88716536
447,3,89314623
448,3,89915392
449,3,90518849
450,3,91125000
451,3,91733851
452,3,92345408
453,3,92959677
454,3,93576664
455,3,94196375
456,3,94818816
457,3,95443993
458,3,96071912
459,3,96702579
460,3,97336000
461,3,97972181
462,3,98611128
463,3,99252847
464,3,99897344
57,4,10556001
58,4,11316496
59,4,12117361
60,4,12960000
61,4,13845841
62,4,14776336
63,4,15752961
64,4,16777216
65,4,17850625
66,4,18974736
67,4,20151121
68,4,21381376
69,4,22667121
70,4,24010000
71,4,25411681
72,4,26873856
73,4,28398241
74,4,29986576
75,4,31640625
76,4,33362176
77,4,35153041
78,4,37015056
79,4,38950081
80,4,40960000
81,4,43046721
82,4,45212176
83,4,47458321
84,4,49787136
85,4,52200625
86,4,54700816
87,4,57289761
88,4,59969536
89,4,62742241
90,4,65610000
91,4,68574961
92,4,71639296
93,4,74805201
94,4,78074896
95,4,81450625
96,4,84934656
97,4,88529281
98,4,92236816
99,4,96059601
26,5,11881376
27,5,14348907
28,5,17210368
29,5,20511149
30,5,24300000
31,5,28629151
32,5,33554432
33,5,39135393
34,5,45435424
35,5,52521875
36,5,60466176
37,5,69343957
38,5,79235168
39,5,90224199
15,6,11390625
16,6,16777216
17,6,24137569
18,6,34012224
19,6,47045881
20,6,64000000
21,6,85766121
10,7,10000000
11,7,19487171
12,7,35831808
13,7,62748517
8,8,16777216
9,8,43046721
6,9,10077696
7,9,40353607
6,10,60466176
