317,6,1014741853230169
318,6,1034100432834624
319,6,1053765797374081
320,6,1073741824000000
321,6,1094032426497921
322,6,1114641555517504
323,6,1135573198803289
324,6,1156831381426176
325,6,1178420166015625
326,6,1200343652992576
327,6,1222605980803089
328,6,1245211326152704
329,6,1268163904241521
330,6,1291467969000000
331,6,1315127813325481
332,6,1339147769319424
333,6,1363532208525369
334,6,1388285542167616
335,6,1413412221390625
336,6,1438916737499136
337,6,1464803622199009
338,6,1491077447838784
339,6,1517742827651961
340,6,1544804416000000
341,6,1572266908616041
342,6,1600135042849344
343,6,1628413597910449
344,6,1657107395117056
345,6,1686221298140625
346,6,1715760213253696
347,6,1745729089577929
348,6,1776132919332864
349,6,1806976738085401
350,6,1838265625000000
351,6,1870004703089601
352,6,1902199139467264
353,6,1934854145598529
354,6,1967974977554496
355,6,2001566936265625
356,6,2035635367776256
357,6,2070185663499849
358,6,2105223260474944
359,6,2140753641621841
360,6,2176782336000000
361,6,2213314919066161
362,6,2250357012933184
363,6,2287914286629609
364,6,2325992456359936
365,6,2364597285765625
366,6,2403734586186816
367,6,2443410216924769
368,6,2483630085505024
369,6,2524400147941281
370,6,2565726409000000
371,6,2607614922465721
372,6,2650071791407104
373,6,2693103168443689
374,6,2736715256013376
375,6,2780914306640625
376,6,2825706623205376
377,6,2871098559212689
378,6,2917096519063104
379,6,2963706958323721
380,6,3010936384000000
381,6,3058791354808281
382,6,3107278481449024
383,6,3156404426880769
384,6,3206175906594816
385,6,3256599688890625
386,6,3307682595151936
387,6,3359431500123609
388,6,3411853332189184
389,6,3464955073649161
390,6,3518743761000000
391,6,3573226485213841
392,6,3628410392018944
393,6,3684302682180849
394,6,3740910611784256
395,6,3798241492515625
396,6,3856302691946496
397,6,3915101633817529
398,6,3974645798323264
399,6,4034942722397601
400,6,4096000000000000
401,6,4157825282402401
402,6,4220426278476864
403,6,4283810754983929
404,6,4347986536861696
405,6,4412961507515625
406,6,4478743609109056
407,6,4545340842854449
408,6,4612761269305344
409,6,4681013008649041
410,6,4750104241000000
411,6,4820043206693961
412,6,4890838206582784
413,6,4962497602330009
414,6,5035029816707136
415,6,5108443333890625
416,6,5182746699759616
417,6,5257948522194369
418,6,5334057471375424
419,6,5411082280083481
420,6,5489031744000000
421,6,5567914722008521
422,6,5647740136496704
423,6,5728516973659089
424,6,5810254283800576
425,6,5892961181640625
426,6,5976646846618176
427,6,6061320523197289
428,6,6146991521173504
429,6,6233669215980921
430,6,6321363049000000
431,6,6410082527866081
432,6,6499837226778624
433,6,6590636786811169
434,6,6682490916222016
435,6,6775409390765625
436,6,6869402054004736
437,6,6964478817623209
438,6,7060649661739584
439,6,7157924635221361
440,6,7256313856000000
441,6,7355827511386641
442,6,7456475858388544
443,6,7558269224026249
444,6,7661218005651456
445,6,7765332671265625
446,6,7870623759839296
447,6,7977101881632129
448,6,8084777718513664
449,6,8193662024284801
450,6,8303765625000000
451,6,8415099419290201
452,6,8527674378686464
453,6,8641501547944329
454,6,8756592045368896
455,6,8872957063140625
456,6,8990607867641856
457,6,9109555799784049
458,6,9229812275335744
459,6,9351388785251241
460,6,9474296896000000
461,6,9598548249896761
462,6,9724154565432384
463,6,9851127637605409
464,6,9979479338254336
139,7,1002544368429379
140,7,1054135040000000
141,7,1107984764452581
142,7,1164175380274048
143,7,1222791080775407
144,7,1283918464548864
145,7,1347646586640625
146,7,1414067010444416
147,7,1483273860320763
148,7,1555363874947072
149,7,1630436461403549
150,7,1708593750000000
151,7,1789940649848551
152,7,1874584905187328
153,7,1962637152460137
154,7,2054210978157184
155,7,2149422977421875
156,7,2248392813428736
157,7,2351243277537493
158,7,2458100350228352
159,7,2569093262823519
160,7,2684354560000000
161,7,2804020163098721
162,7,2928229434235008
163,7,3057125241215467
164,7,3190854023266304
165,7,3329565857578125
166,7,3473414526672256
167,7,3622557586593623
168,7,3777156435935232
169,7,3937376385699289
170,7,4103386730000000
171,7,4275360817613091
172,7,4453476124377088
173,7,4637914326451397
174,7,4828861374436224
175,7,5026507568359375
176,7,5231047633534976
177,7,5442680797299153
178,7,5661610866627712
179,7,5888046306640859
180,7,6122200320000000
181,7,6364290927201661
182,7,6614541047773568
183,7,6873178582377927
184,7,7140436495826944
185,7,7416552901015625
186,7,7701771143776896
187,7,7996339888664083
188,7,8300513205665792
189,7,8614550657858229
190,7,8938717390000000
191,7,9273284218074431
192,7,9618527719784448
193,7,9974730326005057
75,8,1001129150390625
76,8,1113034787454976
77,8,1235736291547681
78,8,1370114370683136
79,8,1517108809906561
80,8,1677721600000000
81,8,1853020188851841
82,8,2044140858654976
83,8,2252292232139041
84,8,2478758911082496
85,8,2724905250390625
86,8,2992179271065856
87,8,3282116715437121
88,8,3596345248055296
89,8,3936588805702081
90,8,4304672100000000
91,8,4702525276151521
92,8,5132188731375616
93,8,5595818096650401
94,8,6095689385410816
95,8,6634204312890625
96,8,7213895789838336
97,8,7837433594376961
98,8,8507630225817856
99,8,9227446944279201
47,9,1119130473102767
48,9,1352605460594688
49,9,1628413597910449
50,9,1953125000000000
51,9,2334165173090451
52,9,2779905883635712
53,9,3299763591802133
54,9,3904305912313344
55,9,4605366583984375
56,9,5416169448144896
57,9,6351461955384057
58,9,7427658739644928
59,9,8662995818654939
32,10,1125899906842624
33,10,1531578985264449
34,10,2064377754059776
35,10,2758547353515625
36,10,3656158440062976
37,10,4808584372417849
38,10,6278211847988224
39,10,8140406085191601
