682,6,100625082151426624
683,6,101513598260088169
684,6,102408642742358016
685,6,103310253915765625
686,6,104218470266268736
687,6,105133330448746209
688,6,106054873287491584
689,6,106983137776707361
690,6,107918163081000000
691,6,108859988535875641
692,6,109808653648236544
693,6,110764198096878249
694,6,111726661732987456
695,6,112696084580640625
696,6,113672506837303296
697,6,114655968874330129
698,6,115646511237465664
699,6,116644174647345801
700,6,117649000000000000
701,6,118661028367354201
702,6,119680300997734464
703,6,120706859316371329
704,6,121740744925904896
705,6,122781999606890625
706,6,123830665318305856
707,6,124886784198057049
708,6,125950398563487744
709,6,127021550911887241
710,6,128100283921000000
711,6,129186640449535761
712,6,130280663537680384
713,6,131382396407607409
714,6,132491882463990336
715,6,133609165294515625
716,6,134734288670396416
717,6,135867296546886969
718,6,137008233063797824
719,6,138157142546011681
720,6,139314069504000000
721,6,140479058634340321
722,6,141652154820234304
723,6,142833403132026489
724,6,144022848827723776
725,6,145220537353515625
726,6,146426514344294976
727,6,147640825624179889
728,6,148863517207035904
729,6,150094635296999121
730,6,151334226289000000
731,6,152582336769287881
732,6,153839013515956224
733,6,155104303499468569
734,6,156378253883185216
735,6,157660912023890625
736,6,158952325472321536
737,6,160252541973695809
738,6,161561609468241984
739,6,162879576091729561
740,6,164206490176000000
741,6,165542400249498441
742,6,166887355037806144
743,6,168241403464173649
744,6,169604594650054656
745,6,170976977915640625
746,6,172358602780396096
747,6,173749518963594729
748,6,175149776384856064
749,6,176559425164683001
750,6,177978515625000000
751,6,179407098289692001
752,6,180845223885144064
753,6,182292943340781729
754,6,183750307789612096
755,6,185217368568765625
756,6,186694177220038656
757,6,188180785490436649
758,6,189677245332718144
759,6,191183608905939441
760,6,192699928576000000
761,6,194226256916188561
762,6,195762646707729984
763,6,197309150940332809
764,6,198865822812737536
765,6,200432715733265625
766,6,202009883320369216
767,6,203597379403181569
768,6,205195258022068224
769,6,206803573429178881
770,6,208422380089000000
771,6,210051732678908121
772,6,211691686089723904
773,6,213342295426266889
774,6,215003616007910976
775,6,216675703369140625
776,6,218358613260107776
777,6,220052401647189489
778,6,221757124713546304
779,6,223472838859681321
780,6,225199600704000000
781,6,226937467083370681
782,6,228686495053685824
783,6,230446741890423969
784,6,232218265089212416
785,6,234001122366390625
786,6,235795371659574336
787,6,237601071128220409
788,6,239418279154192384
789,6,241247054342326761
790,6,243087455521000000
791,6,244939541742696241
792,6,246803372284575744
793,6,248679006649044049
794,6,250566504564321856
795,6,252465925985015625
796,6,254377331092688896
797,6,256300780296434329
798,6,258236334233446464
799,6,260184053769595201
800,6,262144000000000000
801,6,264116234249604801
802,6,266100818073753664
803,6,268097813258767129
804,6,270107281822519296
805,6,272129286015015625
806,6,274163888318971456
807,6,276211151450391249
808,6,278271138359148544
809,6,280343912229566641
810,6,282429536481000000
811,6,284528074768416361
812,6,286639590982979584
813,6,288764149252633209
814,6,290901813942684736
815,6,293052649656390625
816,6,295216721235542016
817,6,297394093761051169
818,6,299584832553538624
819,6,301789003173921081
820,6,304006671424000000
821,6,306237903347050921
822,6,308482765228413504
823,6,310741323596082289
824,6,313013645221298176
825,6,315299797119140625
826,6,317599846549120576
827,6,319913861015774089
828,6,322241908269256704
829,6,324584056305938521
830,6,326940373369000000
831,6,329310927949028481
832,6,331695788784615424
833,6,334095024862954369
834,6,336508705420439616
835,6,338936899943265625
836,6,341379678168027136
837,6,343837110082320009
838,6,346309265925342784
839,6,348796216188498961
840,6,351298031616000000
841,6,353814783205469041
842,6,356346542208545344
843,6,358893380131489449
844,6,361455368735789056
845,6,364032580038765625
846,6,366625086314181696
847,6,369232960092848929
848,6,371856274163236864
849,6,374495101572082401
850,6,377149515625000000
851,6,379819589887092601
852,6,382505398183563264
853,6,385207014600327529
854,6,387924513484626496
855,6,390657969445640625
856,6,393407457355104256
857,6,396173052347920849
858,6,398954829822778944
859,6,401752865442768841
860,6,404567235136000000
861,6,407398015096219161
862,6,410245281783429184
863,6,413109111924508609
864,6,415989582513831936
865,6,418886770813890625
866,6,421800754355914816
867,6,424731610940495769
868,6,427679418638209024
869,6,430644255790238281
870,6,433626201009000000
871,6,436625333178768721
872,6,439641731456303104
873,6,442675475271472689
874,6,445726644327885376
875,6,448795318603515625
876,6,451881578351333376
877,6,454985504099933689
878,6,458107176654167104
879,6,461246677095770721
880,6,464404086784000000
881,6,467579487356261281
882,6,470772960728745024
883,6,473984589097059769
884,6,477214454936866816
885,6,480462641004515625
886,6,483729230337679936
887,6,487014306255994609
888,6,490317952361693184
889,6,493640252540246161
890,6,496981290961000000
891,6,500341152077816841
892,6,503719920629714944
893,6,507117681641509849
894,6,510534520424456256
895,6,513970522576890625
896,6,517425773984874496
897,6,520900360822838529
898,6,524394369554227264
899,6,527907886932144601
900,6,531441000000000000
901,6,534993796092155401
902,6,538566362834572864
903,6,542158788145462929
904,6,545771160235933696
905,6,549403567610640625
906,6,553056099068437056
907,6,556728843703025449
908,6,560421890903609344
909,6,564135330355546041
910,6,567869252041000000
911,6,571623746239596961
912,6,575398903529078784
913,6,579194814785959009
914,6,583011571186179136
915,6,586849264205765625
916,6,590707985621487616
917,6,594587827511515369
918,6,598488882256079424
919,6,602411242538130481
920,6,606355001344000000
921,6,610320251964061521
922,6,614307087993392704
923,6,618315603332438089
924,6,622345892187672576
925,6,626398049072265625
926,6,630472168806746176
927,6,634568346519668289
928,6,638686677648277504
929,6,642827257939177921
930,6,646990183449000000
931,6,651175550545069081
932,6,655383455906074624
933,6,659613996522740169
934,6,663867269698494016
935,6,668143373050140625
936,6,672442404508532736
937,6,676764462319244209
938,6,681109645043243584
939,6,685478051557568361
940,6,689869781056000000
941,6,694284933049739641
942,6,698723607368084544
943,6,703185904159105249
944,6,707671923890323456
945,6,712181767349390625
946,6,716715535644767296
947,6,721273330206403129
948,6,725855252786417664
949,6,730461405459781801
950,6,735091890625000000
951,6,739746811004793201
952,6,744426269646782464
953,6,749130369924173329
954,6,753859215536440896
955,6,758612910510015625
956,6,763391559198969856
957,6,768195266285705049
958,6,773024136781639744
959,6,777878276027898241
960,6,782757789696000000
961,6,787662783788549761
962,6,792593364639928384
963,6,797549638916984409
964,6,802531713619726336
965,6,807539696082015625
966,6,812573693972260416
967,6,817633815294109969
968,6,822720168387149824
969,6,827832861927597681
970,6,832972004929000000
971,6,838137706742929321
972,6,843330077059682304
973,6,848549225908978489
974,6,853795263660659776
975,6,859068301025390625
976,6,864368449055358976
977,6,869695819144977889
978,6,875050523031587904
979,6,880432672796160121
980,6,885842380864000000
981,6,891279760005451881
982,6,896744923336604224
983,6,902237984319995569
984,6,907759056765321216
985,6,913308254830140625
986,6,918885693020585536
987,6,924491486192068809
988,6,930125749549993984
989,6,935788598650465561
990,6,941480149401000000
991,6,947200518061237441
992,6,952949821243654144
993,6,958728175914275649
994,6,964535699393390656
995,6,970372509356265625
996,6,976238723833860096
997,6,982134461213542729
998,6,988059840239808064
269,7,101921535994725989
270,7,104603532030000000
271,7,107345794852487791
272,7,110149448801189888
273,7,113015634933443697
274,7,115945511210679424
275,7,118940252685546875
276,7,122001051690418176
277,7,125129118027271453
278,7,128325679158960512
279,7,131591980401875559
280,7,134929285120000000
281,7,138338874920368361
282,7,141822049849930368
283,7,145380128593826227
284,7,149014448675078144
285,7,152726366655703125
286,7,156517258339252096
287,7,160388518974780383
288,7,164341563462254592
289,7,168377826559400929
290,7,172498763090000000
291,7,176705848153633131
292,7,181000577336885248
293,7,185384466926009357
294,7,189859054121057664
295,7,194425897251484375
296,7,199086575993225216
297,7,203842691587258713
298,7,208695867059654272
299,7,213647747443112099
300,7,218700000000000000
301,7,223854314446892101
302,7,229112403180614528
303,7,234476001505803087
304,7,239946867863977984
305,7,245526784064140625
306,7,251217555514897536
307,7,257021011458116443
308,7,262939005204119552
309,7,268973414368419069
310,7,275126141110000000
311,7,281399112371155271
312,7,287794280118878208
313,7,294313621587817417
314,7,300959139524799104
315,7,307732862434921875
316,7,314636844829229056
317,7,321673167473963573
318,7,328843937641410432
319,7,336151289362331839
320,7,343597383680000000
321,7,351184408905832641
322,7,358914580876636288
323,7,366790143213462347
324,7,374813367582081024
325,7,382986553955078125
326,7,391312030875579776
327,7,399792155722610103
328,7,408429314978086912
329,7,417225924495460409
330,7,426184429770000000
331,7,435307306210734211
332,7,444597059414048768
333,7,454056225438947877
334,7,463687371083983744
335,7,473493094165859375
336,7,483476023799709696
337,7,493638820681066033
338,7,503984177369508992
339,7,514514818574014779
340,7,525233501440000000
341,7,536143015838069981
342,7,547246184654475648
343,7,558545864083284007
344,7,570044943920267264
345,7,581746347858515625
346,7,593653033785778816
347,7,605767994083541363
348,7,618094255927836672
349,7,630634881591804949
350,7,643392968750000000
351,7,656371650784449951
352,7,669574097092476928
353,7,683003513396280737
354,7,696663142054291584
355,7,710556262374296875
356,7,724686190928347136
357,7,739056281869446093
358,7,753669927250029952
359,7,768530557342240919
360,7,783641640960000000
361,7,799006685782884121
362,7,814629238681812608
363,7,830512886046548067
364,7,846661254115016704
365,7,863078009304453125
366,7,879766858544374656
367,7,896731549611390223
368,7,913975871465848832
369,7,931503654590332689
370,7,949318771330000000
371,7,967425136234782491
372,7,985826706403442688
134,8,103953325454500096
135,8,110324037687890625
136,8,117033789351264256
137,8,124097929967680321
138,8,131532383853732096
139,8,139353667211683681
140,8,147578905600000000
141,8,156225851787813921
142,8,165312903998914816
143,8,174859124550883201
144,8,184884258895036416
145,8,195408755062890625
146,8,206453783524884736
147,8,218041257467152161
148,8,230193853492166656
149,8,242935032749128801
150,8,256289062500000000
151,8,270281038127131201
152,8,284936905588473856
153,8,300283484326400961
154,8,316348490636206336
155,8,333160561500390625
156,8,350749278894882816
157,8,369145194573386401
158,8,388379855336079616
159,8,408485828788939521
160,8,429496729600000000
161,8,451447246258894081
162,8,474373168346071296
163,8,498311414318121121
164,8,523300059815673856
165,8,549378366500390625
166,8,576586811427594496
167,8,604967116961135041
168,8,634562281237118976
169,8,665416609183179841
170,8,697575744100000000
171,8,731086699811838561
172,8,765997893392859136
173,8,802359178476091681
174,8,840221879151902976
175,8,879638824462890625
176,8,920664383502155776
177,8,963354501121950081
78,9,106868920913284608
79,9,119851595982618319
80,9,134217728000000000
81,9,150094635296999121
82,9,167619550409708032
83,9,186940255267540403
84,9,208215748530929664
85,9,231616946283203125
86,9,257327417311663616
87,9,285544154243029527
88,9,316478381828866048
89,9,350356403707485209
90,9,387420489000000000
91,9,427929800129788411
92,9,472161363286556672
93,9,520411082988487293
94,9,572994802228616704
95,9,630249409724609375
96,9,692533995824480256
97,9,760231058654565217
98,9,833747762130149888
99,9,913517247483640899
51,10,119042423827613001
52,10,144555105949057024
53,10,174887470365513049
54,10,210832519264920576
55,10,253295162119140625
56,10,303305489096114176
57,10,362033331456891249
58,10,430804206899405824
59,10,511116753300641401
60,10,604661760000000000
61,10,713342911662882601
62,10,839299365868340224
63,10,984930291881790849
