750,8,100112915039062500000000
751,8,101185782842484578256001
752,8,102268697487944508768256
753,8,103361739510713307378561
754,8,104464989983319110369536
755,8,105578530518410625390625
756,8,106702443271632013295616
757,8,107836810944509231272801
758,8,108981716787347867689216
759,8,110137244602142499110721
760,8,111303478745497600000000
761,8,112480504131560035634881
762,8,113668406234963168829696
763,8,114867271093782611082721
764,8,116077185312503648813056
765,8,117298236065000375390625
766,8,118530511097526559703296
767,8,119774098731718282045441
768,8,121029087867608368152576
769,8,122295567986652652247041
770,8,123573629154768100000000
771,8,124863362025382822355361
772,8,126164857842498011201536
773,8,127478208443761827917281
774,8,128803506263555275858176
775,8,130140844336090087890625
776,8,131490316298518660120576
777,8,132852016394056063004481
778,8,134226039475114161070336
779,8,135612481006447872516961
780,8,137011437068313600000000
781,8,138423004359639863953441
782,8,139847280201210169835776
783,8,141284362538858140730241
784,8,142734349946674946768896
785,8,144197341630229062890625
786,8,145673437429798386483456
787,8,147162737823614746501921
788,8,148665343931120835690496
789,8,150181357516239597584481
790,8,151710880990656100000000
791,8,153254017417111926765121
792,8,154810870512712119484416
793,8,156381544652244701169601
794,8,157966144871512813609216
795,8,159564776870679500390625
796,8,161177547017625167527936
797,8,162804562351317753689761
798,8,164445930585195642061056
799,8,166101760110563345913601
800,8,167772160000000000000000
801,8,169457240010780689926401
802,8,171157110588310651699456
803,8,172871882869572373683361
804,8,174601668686585633243136
805,8,176346580569880500390625
806,8,178106731751983340790016
807,8,179882236170915850520001
808,8,181673208473707155030016
809,8,183479764019919004768321
810,8,185302018885184100000000
811,8,187140089864757577373281
812,8,188994094477081690832896
813,8,190864150967363719519521
814,8,192750378311167135334656
815,8,194652896218016062890625
816,8,196571825135013064605696
817,8,198507286250470283744641
818,8,200459401497553978245376
819,8,202428293557942478212641
820,8,204414085865497600000000
821,8,206416902609949549841761
822,8,208436868740595350036736
823,8,210474109970010820726081
824,8,212528752777776150347776
825,8,214600924414215087890625
826,8,216690752904147790110976
827,8,218798367050657356915681
828,8,220923896438870088155136
829,8,223067471439749495110561
830,8,225229223213904100000000
831,8,227409283715409056867841
832,8,229607785695641627262976
833,8,231824862707130544151041
834,8,234060649107419297546496
835,8,236315280062943375390625
836,8,238588891552921493241856
837,8,240881620373260846385121
838,8,243193604140476418007296
839,8,245524981295624377126081
840,8,247875891108249600000000
841,8,250246473680347348787521
842,8,252636869950339141263616
843,8,255047221697062845442401
844,8,257477671543777032994816
845,8,259928362962179625390625
846,8,262399440276440866734336
847,8,264891048667250657304961
848,8,267403334175880281849856
849,8,269936443708258566723201
850,8,272490525039062500000000
851,8,275065726815822348736801
852,8,277662198563041307590656
853,8,280280090686329713048161
854,8,282919554476553857556736
855,8,285580742113999437890625
856,8,288263806672549672124416
857,8,290968902123878119627201
858,8,293696183341656238530816
859,8,296445806105775715165921
860,8,299217927106585600000000
861,8,302012703949144284651681
862,8,304830295157486354596096
863,8,307670860178904352216321
864,8,310534559388245484896256
865,8,313421554092223312890625
866,8,316332006533744451748096
867,8,319266079896250324103841
868,8,322223938308073995698176
869,8,325205746846812130518241
870,8,328211671543712100000000
871,8,331241879388074281268161
872,8,334296538331669579431936
873,8,337375817293172208994881
874,8,340479886162607769477376
875,8,343608915805816650390625
876,8,346763078068932800741376
877,8,349942545782877898286881
878,8,353147492767870953799936
879,8,356378093837953385644161
880,8,359634524805529600000000
881,8,362916962485923112122241
882,8,366225584701948244050176
883,8,369560570288497434231841
884,8,372922099097144194564096
885,8,376310352000761750390625
886,8,379725510898157399040256
887,8,383167758718722622528321
888,8,386637279427098990084096
889,8,390134258027859886207681
890,8,393658880570208100000000
891,8,397211334152689311549921
892,8,400791806927921511202816
893,8,404400488107340387575201
894,8,408037567965960720220416
895,8,411703237847153812890625
896,8,415397690167441003380736
897,8,419121118421303285980161
898,8,422873717186007082598656
899,8,426655682126446198672801
900,8,430467210000000000000000
901,8,434308498661407846687201
902,8,438179747067659820441856
903,8,442081155282903781472961
904,8,446012924483368791310336
905,8,449975256962304937890625
906,8,453968356134939599298816
907,8,457992426543450182594401
908,8,462047673861953374191616
909,8,466134304901510938303521
910,8,470252527615152100000000
911,8,474402551102912549470081
912,8,478584585616890104119296
913,8,482798842566317065173121
914,8,487045534522649305497856
915,8,491324875224672125390625
916,8,495637079583622913130496
917,8,499982363688330647123041
918,8,504360944810372276510976
919,8,508773041409246017163841
920,8,513218873137561600000000
921,8,517698660846247508634561
922,8,522212626589775243387136
923,8,526760993631400648723681
924,8,531343986448422341246976
925,8,535961830737457275390625
926,8,540614753419733484011776
927,8,545302982646400031118081
928,8,550026747803854214004736
929,8,554786279519086052117761
930,8,559581809665040100000000
931,8,564413571365994621716641
932,8,569281799002958164197376
933,8,574186728219083566972641
934,8,579128595925099445821696
935,8,584107640304759187890625
936,8,589124100820307495878656
937,8,594178218217964518931521
938,8,599270234533427607920896
939,8,604400393097390732829281
940,8,609568938541081600000000
941,8,614776116801816507052321
942,8,620022175128572973302016
943,8,625307362087580183568001
944,8,630631927567927283286016
945,8,635996122787189562890625
946,8,641400200297072569467136
947,8,646844413989074183715361
948,8,652329019100164700307456
949,8,657854272218484949762401
950,8,663420431289062500000000
951,8,669027755619545975777601
952,8,674676505885957534253056
953,8,680366944138463534957761
954,8,686099333807163442503936
955,8,691873939707897000390625
956,8,697691028048069714313216
957,8,703550866432496683421601
958,8,709453723869264818012416
959,8,715399870775613482181121
960,8,721389578983833600000000
961,8,727423121747185263828481
962,8,733500773745833883402496
963,8,739622811092804914389921
964,8,745789511339957205139456
965,8,752001153483975000390625
966,8,758258017972378640752896
967,8,764560386709553996802241
968,8,770908543062800676683776
969,8,777302771868399046149441
970,8,783743359437696100000000
971,8,790230593563210223940961
972,8,796764763524754885902336
973,8,803346160095581295912481
974,8,809975075548540073656576
975,8,816651803662261962890625
976,8,823376639727357631922176
977,8,830149880552636599409281
978,8,836971824471345324769536
979,8,843842771347424502531361
980,8,850763022581785600000000
981,8,857732881118606677651041
982,8,864752651451647531704576
983,8,871822639630584198373441
984,8,878943153267362859319296
985,8,886114501542573187890625
986,8,893336995211841175757056
987,8,900610946612241479594721
988,8,907936669668729327517696
989,8,915314479900592024990881
990,8,922744694427920100000000
991,8,930227631978098127294721
992,8,937763612892315271561216
993,8,945352959132095589420801
994,8,952995994285848130191616
995,8,960693043575436875390625
996,8,968444433862770556993536
997,8,976250493656412394510561
998,8,984111553118209790976256
360,9,101559956668416000000000
361,9,104127350297911241532841
362,9,106752273953819451402752
363,9,109435852481467592240523
364,9,112179229525223253213184
365,9,114983567789585767578125
366,9,117850049303170251419136
367,9,120779875685608537745647
368,9,123774268417391112224768
369,9,126834469112674289266929
370,9,129961739795077000000000
371,9,133157363176491696843731
372,9,136422642938934012936192
373,9,139758904019455948566613
374,9,143167492898147491034624
375,9,146649777889251708984375
376,9,150207149435418497253376
377,9,153841020405122283630137
378,9,157552826393269144631808
379,9,161344026025018913493019
380,9,165216101262848000000000
381,9,169170557716878778609821
382,9,173208924958501538463232
383,9,177332756837315126431103
384,9,181543631801412552228864
385,9,185843153221037962890625
386,9,190232949715641532514816
387,9,194714675484358952176227
388,9,199290010639942344245248
389,9,203960661546169565063909
390,9,208728361158759000000000
391,9,213594869369817095335111
392,9,218561973355846012239872
393,9,223631487929338929249993
394,9,228805255893990661179904
395,9,234085148403551404296875
396,9,239473065324351559827456
397,9,244970935601525730479917
398,9,250580717628964127641088
399,9,256304399623019770243599
400,9,262144000000000000000000
401,9,268101567757470981763601
402,9,274179182859404002202112
403,9,280378956625192524759283
404,9,286703032122569104031744
405,9,293153584564451408203125
406,9,299732821709746744055296
407,9,306442984268144625317207
408,9,313286346308927071715328
409,9,320265215673826473056089
410,9,327381934393961000000000
411,9,334638879110877690879291
412,9,342038461501733491965952
413,9,349583128708644677014973
414,9,357275363772235220688384
415,9,365117686069414849609375
416,9,373112651755417644302336
417,9,381262854210132215144097
418,9,389570924488754625683968
419,9,398039531776795387285379
420,9,406671383849472000000000
421,9,415469227535518665906181
422,9,424435849185444952827392
423,9,433574075144275338393063
424,9,442886772228801716813824
425,9,452376848209381103515625
426,9,462047252296310925912576
427,9,471900975630814442096587
428,9,481941051780668983083008
429,9,492170557240509868475469
430,9,502592611936843000000000
431,9,513210379737799292308271
432,9,524027068967664255762432
433,9,535045932926216201589553
434,9,546270270412906695832064
435,9,557703426255917044921875
436,9,569348791846124752470016
437,9,581209805676014043990677
438,9,593289953883564713768448
439,9,605592770801153705930359
440,9,618121839509504000000000
441,9,630880792396715529789561
442,9,643873311722413023427072
443,9,657103130187045811620443
444,9,670574031506374810927104
445,9,684289850991182048828125
446,9,698254476132238257798656
447,9,712471847190564226322367
448,9,726945957793021755916288
449,9,741680855533270234714049
450,9,756680642578125000000000
451,9,771949476279353824294051
452,9,787491569790948022157312
453,9,803311192691904837821733
454,9,819412671614557937042944
455,9,835800390878492990234375
456,9,852478793130085497962496
457,9,869452379987698174267657
458,9,886725712692575368022528
459,9,904303412765472167650539
460,9,922190162669056000000000
461,9,940390706476118700005741
462,9,958909850543637193969152
463,9,977752464192721105849423
464,9,996923480394485762883584
200,10,102400000000000000000000
201,10,107636749520976961802001
202,10,113113305642107341825024
203,10,118839380482575369225049
204,10,124825028607463130136576
205,10,131080657325707041015625
206,10,137617037244838084658176
207,10,144445313087602911489249
208,10,151577014775638417997824
209,10,159024068785448665562401
210,10,166798809782010000000000
211,10,174913992535407978606601
212,10,183382804125988210868224
213,10,192218876443582475037849
214,10,201436298986451489022976
215,10,211049631965666494140625
216,10,221073919720733357899776
217,10,231524704452345220694449
218,10,242418040278232804762624
219,10,253770507618165375615801
220,10,265599227914240000000000
221,10,277921878692682183940201
222,10,290756708973467203175424
223,10,304122555034158459939649
224,10,318038856534447018213376
225,10,332525673007965087890625
226,10,347603700728035650405376
227,10,363294289954110647868649
228,10,379619462565741198311424
229,10,396601930091015154838201
230,10,414265112136490000000000
231,10,432633155225742562122801
232,10,451730952053751361306624
233,10,471584161164422542970449
234,10,492219227058666339787776
235,10,513663400740527822265625
236,10,535944760708973357694976
237,10,559092234403032700371849
238,10,583135620108095986484224
239,10,608105609331265108509601
240,10,634033809653760000000000
241,10,660952768068482275874401
242,10,688895994810941449421824
243,10,717897987691852588770249
244,10,747994256939818786226176
245,10,779221350562617197265625
246,10,811616880235713665688576
247,10,845219547726738091164049
248,10,880069171864760718721024
249,10,916206716063318440310001
250,10,953674316406250000000000
251,10,992515310305509690315001
