100,9,1000000000000000000
373,7,1004527481829495997
178,8,1007766734259732736
374,7,1023531505749002624
375,7,1042842864990234375
179,8,1053960288888713761
376,7,1062465690325221376
377,7,1082404156823183753
101,9,1093685272684360901
180,8,1101996057600000000
378,7,1102662484205853312
379,7,1123244937204690259
380,7,1144155825920000000
181,8,1151936657823500641
64,10,1152921504606846976
381,7,1165399506181955061
382,7,1186980379913527168
102,9,1195092568622310912
182,8,1203846470694789376
383,7,1208902895495334527
384,7,1231171548132409344
385,7,1253790880222890625
183,8,1257791680575160641
386,7,1276765481728647296
387,7,1300099990547836683
103,9,1304773183829244583
184,8,1313840315232157696
388,7,1323799092889403392
65,10,1346274334462890625
389,7,1347867523649523629
185,8,1372062286687890625
390,7,1372310066790000000
391,7,1397131555718611831
392,7,1422336873671426048
104,9,1423311812421484544
186,8,1432529432742502656
393,7,1447930954097073657
394,7,1473918781042996864
187,8,1495315559180183521
395,7,1500305389543671875
396,7,1527095866010812416
105,9,1551328215978515625
397,7,1554295348625559013
188,8,1560496482665168896
66,10,1568336880910795776
398,7,1581909027732659072
399,7,1609942146236642799
189,8,1628150074335205281
400,7,1638400000000000000
401,7,1667287938243362801
106,9,1689478959002692096
402,7,1696611363947699328
190,8,1698356304100000000
403,7,1726375734258523387
404,7,1756586560892125184
191,8,1771197285652216321
405,7,1787249410543828125
406,7,1818369905298276736
67,10,1822837804551761449
107,9,1838459212420154507
192,8,1846757322198614016
407,7,1849953723041760743
408,7,1882006597876580352
409,7,1914534320537457769
193,8,1925122952918976001
410,7,1947542738810000000
411,7,1981037757951217971
108,9,1999004627104432128
194,8,2006383000160502016
412,7,2015025341112107008
413,7,2049511509762293717
414,7,2084502344116754304
195,8,2090628617375390625
68,10,2113922820157210624
415,7,2120003983564609375
416,7,2156022627100000256
109,9,2171893279442309389
196,8,2177953337809371136
417,7,2192564533755051873
418,7,2229636023034927232
419,7,2267243475354978539
197,8,2268453123948987361
420,7,2305393332480000000
421,7,2344092097965587341
110,9,2357947691000000000
198,8,2362226417735475456
422,7,2383346337601609088
423,7,2423162679857794647
69,10,2446194060654759801
199,8,2459374191553118401
424,7,2463547816331444224
425,7,2504508502197265625
426,7,2546051556659342976
111,9,2558036924386500591
200,8,2560000000000000000
427,7,2588183863405242403
428,7,2630912371062259712
201,8,2664210032449121601
429,7,2674244093655815109
430,7,2718186111070000000
431,7,2762745569510280911
202,8,2772113166407885056
112,9,2773078757450186752
432,7,2807929681968365568
70,10,2824752490000000000
433,7,2853745728689236177
203,8,2883821021683985761
434,7,2900201057640354944
435,7,2947303084983046875
436,7,2995059295546064896
204,8,2999448015365799936
113,9,3004041937984268273
437,7,3043477243301342333
438,7,3092564551841937792
205,8,3119111417625390625
439,7,3142328914862177479
440,7,3192778096640000000
206,8,3242931408352297216
441,7,3243919932521508681
114,9,3251948521156637184
71,10,3255243551009881201
442,7,3295762329407736448
443,7,3348313266243628307
207,8,3371031134626313601
444,7,3401580794509246464
445,7,3455573038713203125
208,8,3503536769037500416
446,7,3510298196888326016
115,9,3517876291919921875
447,7,3565764541089561663
448,7,3621980417894121472
209,8,3640577568861717121
449,7,3678954248903875649
450,7,3736694531250000000
72,10,3743906242624487424
210,8,3782285936100000000
451,7,3795209838099880651
116,9,3802961274698203136
452,7,3854508819166281728
453,7,3914600201218781037
211,8,3928797478390152481
454,7,3975492788597478784
455,7,4037195463728984375
212,8,4080251070798954496
456,7,4099717187644686336
117,9,4108400332687853397
457,7,4163067000501310393
458,7,4227254022103770752
213,8,4236788918503437921
459,7,4292287452430319619
73,10,4297625829703557649
460,7,4358176572160000000
214,8,4398556620369715456
461,7,4424930743202406821
118,9,4435453859151328768
462,7,4492559409229761408
463,7,4561072096211304367
215,8,4565703233437890625
464,7,4630478412950011904
465,7,4700788051621640625
216,8,4738381338321616896
466,7,4772010788316105856
119,9,4785448563124474679
467,7,4844156483581198523
217,8,4916747105530914241
468,7,4917235082968645632
74,10,4923990397355877376
469,7,4991256617582519389
470,7,5066231204630000000
218,8,5100960362726891776
471,7,5142169047974497191
120,9,5159780352000000000
472,7,5219080438691135488
219,8,5291184662917065441
473,7,5296975755624608297
474,7,5375865465949405824
475,7,5455760125732421875
220,8,5487587353600000000
476,7,5536670380497944576
121,9,5559917313492231481
477,7,5618606965795036053
75,10,5631351470947265625
221,8,5690339646868044961
478,7,5701580707767306112
479,7,5785602523725084959
480,7,5870683422720000000
222,8,5899616690476974336
481,7,5956834506121961761
122,9,5987402799531080192
482,7,6044066968198563968
223,8,6115597639891380481
483,7,6132392096696902827
484,7,6221821273427820544
485,7,6312365974852578125
224,8,6338465731314712576
486,7,6404037772671962496
76,10,6428888932339941376
123,9,6443858614676334363
487,7,6496848334417832983
225,8,6568408355712890625
488,7,6590809424047112192
489,7,6685932902538226329
490,7,6782230728490000000
226,8,6805617133840466176
491,7,6879714958723010531
124,9,6930988311686938624
492,7,6978397748883406848
227,8,7050287992278341281
493,7,7078291354049197957
494,7,7179408129339016064
495,7,7281760530523359375
228,8,7302621240492097536
77,10,7326680472586200649
496,7,7385361114638319616
125,9,7450580596923828125
497,7,7490222540601799313
229,8,7562821648920027361
498,7,7596357569832223872
499,7,7703779066869753499
500,7,7812500000000000000
230,8,7831098528100000000
501,7,7922533441880253501
126,9,8004512848309157376
502,7,8033892570168224128
231,8,8107665808844335041
503,7,8146590668153303687
504,7,8260641125390352384
78,10,8335775831236199424
505,7,8376057438336015625
232,8,8392742123471896576
506,7,8492853210987575936
127,9,8594754748609397887
507,7,8611042155524345043
233,8,8686550888106661441
508,7,8730638092951601152
509,7,8851654953747076469
510,7,8974106778510000000
234,8,8989320386052055296
511,7,9098007718612700671
512,7,9223372036854775808
128,9,9223372036854775808
235,8,9301283852250390625
513,7,9350214108119830017
79,10,9468276082626847201
514,7,9478548420034789504
515,7,9608389573631796875
236,8,9622679558836781056
516,7,9739752284012691456
517,7,9872651381016080173
129,9,9892530380752880769
237,8,9953750901796946721
