100,5,10000000000
10,10,10000000000
317,4,10098039121
318,4,10226063376
319,4,10355301121
27,7,10460353203
320,4,10485760000
101,5,10510100501
13,9,10604499373
321,4,10617447681
322,4,10750371856
47,6,10779215329
323,4,10884540241
324,4,11019960576
18,8,11019960576
102,5,11040808032
325,4,11156640625
326,4,11294588176
327,4,11433811041
328,4,11574317056
103,5,11592740743
329,4,11716114081
330,4,11859210000
331,4,12003612721
332,4,12149330176
104,5,12166529024
48,6,12230590464
333,4,12296370321
334,4,12444741136
335,4,12594450625
336,4,12745506816
105,5,12762815625
337,4,12897917761
338,4,13051691536
339,4,13206836241
340,4,13363360000
106,5,13382255776
28,7,13492928512
341,4,13521270961
342,4,13680577296
343,4,13841287201
49,6,13841287201
344,4,14003408896
107,5,14025517307
345,4,14166950625
346,4,14331920656
347,4,14498327281
348,4,14666178816
108,5,14693280768
349,4,14835483601
350,4,15006250000
351,4,15178486401
352,4,15352201216
109,5,15386239549
353,4,15527402881
50,6,15625000000
354,4,15704099856
355,4,15882300625
356,4,16062013696
110,5,16105100000
357,4,16243247601
358,4,16426010896
359,4,16610312161
360,4,16796160000
111,5,16850581551
361,4,16983563041
19,8,16983563041
362,4,17172529936
29,7,17249876309
363,4,17363069361
364,4,17555190016
51,6,17596287801
112,5,17623416832
365,4,17748900625
366,4,17944209936
367,4,18141126721
368,4,18339659776
113,5,18424351793
369,4,18539817921
370,4,18741610000
371,4,18945044881
372,4,19150131456
114,5,19254145824
373,4,19356878641
374,4,19565295376
52,6,19770609664
375,4,19775390625
376,4,19987173376
115,5,20113571875
377,4,20200652641
378,4,20415837456
379,4,20632736881
14,9,20661046784
380,4,20851360000
116,5,21003416576
381,4,21071715921
382,4,21293813776
383,4,21517662721
384,4,21743271936
30,7,21870000000
117,5,21924480357
385,4,21970650625
53,6,22164361129
386,4,22199808016
387,4,22430753361
388,4,22663495936
118,5,22877577568
389,4,22898045041
390,4,23134410000
391,4,23372600161
392,4,23612624896
393,4,23854493601
119,5,23863536599
394,4,24098215696
395,4,24343800625
396,4,24591257856
54,6,24794911296
397,4,24840596881
120,5,24883200000
398,4,25091827216
399,4,25344958401
400,4,25600000000
20,8,25600000000
401,4,25856961601
121,5,25937424601
11,10,25937424601
402,4,26115852816
403,4,26376683281
404,4,26639462656
405,4,26904200625
122,5,27027081632
406,4,27170906896
407,4,27439591201
31,7,27512614111
55,6,27680640625
408,4,27710263296
409,4,27982932961
123,5,28153056843
410,4,28257610000
411,4,28534304241
412,4,28813025536
413,4,29093783761
124,5,29316250624
414,4,29376588816
415,4,29661450625
416,4,29948379136
417,4,30237384321
125,5,30517578125
418,4,30528476176
419,4,30821664721
56,6,30840979456
420,4,31116960000
421,4,31414372081
422,4,31713911056
126,5,31757969376
423,4,32015587041
424,4,32319410176
425,4,32625390625
426,4,32933538576
127,5,33038369407
427,4,33243864241
428,4,33556377856
429,4,33871089681
430,4,34188010000
57,6,34296447249
128,5,34359738368
32,7,34359738368
431,4,34507149121
432,4,34828517376
433,4,35152125121
434,4,35477982736
129,5,35723051649
435,4,35806100625
436,4,36136489216
437,4,36469158961
438,4,36804120336
130,5,37129300000
439,4,37141383841
440,4,37480960000
441,4,37822859361
21,8,37822859361
58,6,38068692544
442,4,38167092496
15,9,38443359375
443,4,38513670001
131,5,38579489651
444,4,38862602496
445,4,39213900625
446,4,39567575056
447,4,39923636481
132,5,40074642432
448,4,40282095616
449,4,40642963201
450,4,41006250000
451,4,41371966801
133,5,41615795893
452,4,41740124416
453,4,42110733681
59,6,42180533641
454,4,42483805456
33,7,42618442977
455,4,42859350625
134,5,43204003424
456,4,43237380096
457,4,43617904801
458,4,44000935696
459,4,44386483761
460,4,44774560000
135,5,44840334375
461,4,45165175441
462,4,45558341136
463,4,45954068161
464,4,46352367616
136,5,46525874176
60,6,46656000000
465,4,46753250625
466,4,47156728336
467,4,47562811921
468,4,47971512576
137,5,48261724457
469,4,48382841521
470,4,48796810000
471,4,49213429281
472,4,49632710656
138,5,50049003168
473,4,50054665441
474,4,50479304976
475,4,50906640625
476,4,51336683776
61,6,51520374361
477,4,51769445841
139,5,51888844699
478,4,52204938256
34,7,52523350144
479,4,52643172481
480,4,53084160000
481,4,53527912321
140,5,53782400000
482,4,53974440976
483,4,54423757521
484,4,54875873536
22,8,54875873536
485,4,55330800625
141,5,55730836701
486,4,55788550416
487,4,56249134561
488,4,56712564736
62,6,56800235584
489,4,57178852641
490,4,57648010000
142,5,57735339232
491,4,58120048561
492,4,58594980096
493,4,59072816401
494,4,59553569296
143,5,59797108943
495,4,60037250625
496,4,60523872256
497,4,61013446081
498,4,61505984016
144,5,61917364224
12,10,61917364224
499,4,62001498001
500,4,62500000000
63,6,62523502209
501,4,63001502001
502,4,63506016016
503,4,64013554081
145,5,64097340625
35,7,64339296875
504,4,64524128256
505,4,65037750625
506,4,65554433296
507,4,66074188401
146,5,66338290976
508,4,66597028096
509,4,67122964561
510,4,67652010000
511,4,68184176641
147,5,68641485507
512,4,68719476736
64,6,68719476736
16,9,68719476736
513,4,69257922561
514,4,69799526416
515,4,70344300625
516,4,70892257536
148,5,71008211968
517,4,71443409521
518,4,71997768976
519,4,72555348321
520,4,73116160000
149,5,73439775749
521,4,73680216481
522,4,74247530256
523,4,74818113841
524,4,75391979776
65,6,75418890625
150,5,75937500000
525,4,75969140625
526,4,76549608976
527,4,77133397441
528,4,77720518656
529,4,78310985281
23,8,78310985281
36,7,78364164096
151,5,78502725751
530,4,78904810000
531,4,79502005521
532,4,80102584576
533,4,80706559921
152,5,81136812032
534,4,81313944336
535,4,81924750625
536,4,82538991616
66,6,82653950016
537,4,83156680161
538,4,83777829136
153,5,83841135993
539,4,84402451441
540,4,85030560000
541,4,85662167761
542,4,86297287696
154,5,86617093024
543,4,86935932801
544,4,87578116096
545,4,88223850625
546,4,88873149456
155,5,89466096875
547,4,89526025681
548,4,90182492416
67,6,90458382169
549,4,90842562801
550,4,91506250000
551,4,92173567201
156,5,92389579776
552,4,92844527616
553,4,93519144481
554,4,94197431056
555,4,94879400625
37,7,94931877133
157,5,95388992557
556,4,95565066496
557,4,96254442001
558,4,96947540496
559,4,97644375361
560,4,98344960000
158,5,98465804768
68,6,98867482624
561,4,99049307841
562,4,99757432336
