563,8,10094089678769799935521
564,8,10238417422766173126656
279,9,10243251346462395388119
159,10,10326930237613180030401
565,8,10384547628540750390625
566,8,10532499556365522493696
280,9,10578455953408000000000
567,8,10682292637713281848641
568,8,10833946476472881381376
281,9,10923375902587206152921
569,8,10987480850170951784641
160,10,10995116277760000000000
570,8,11142915711200100000000
282,9,11278256692265862584832
571,8,11300271188053611809761
572,8,11459567586566681460736
573,8,11620825391164191282081
283,9,11643349118950948694203
161,10,11701964070276793473601
574,8,11784065266115064299776
575,8,11949308056793212890625
284,9,12018909372337102782464
576,8,12116574790945106558976
577,8,12285886679963981959681
285,9,12405199131609486328125
162,10,12449449430074295092224
578,8,12457265120170718331136
579,8,12630731694101401542561
286,9,12802485663117464444416
580,8,12806308171801600000000
581,8,12984016512127375695841
582,8,13163878864053053726976
287,9,13211041919433685367327
163,10,13239635967018160063849
583,8,13345917567985773647041
584,8,13530155157086846058496
288,9,13631146639813244878848
585,8,13716614358599937890625
586,8,13905318095186109849856
289,9,14063084452067724991009
164,10,14074678408802364030976
587,8,14096289486265729569121
588,8,14289551849367284023296
589,8,14485128701483114818081
290,9,14507145975869000000000
590,8,14683043760432100000000
591,8,14883320946229306075521
165,10,14956826027973134765625
291,9,14963627927497807166211
592,8,15085984382462633967616
593,8,15291058397676482678401
292,9,15432833226052183785472
594,8,15498567526762454466816
595,8,15708536512357125390625
166,10,15888426175698793931776
293,9,15915071101130977289093
596,8,15920990306246905102336
597,8,16135954070780009828961
598,8,16353453180285572505856
294,9,16410657202007740245504
599,8,16573513222499914075201
600,8,16796160000000000000000
167,10,16871927924929095158449
295,9,16919913708310427734375
601,8,17021419531644106084801
602,8,17249318054019717734656
296,9,17443169442222420525056
603,8,17479882022898686824161
604,8,17713138114699670388736
168,10,17909885825636445978624
605,8,17949113227957875390625
297,9,17980759982220503815017
606,8,18187834484802133852416
607,8,18429329232439332691201
298,9,18533027778365537970688
608,8,18673625044646222626816
609,8,18920749723268630577921
169,10,19004963774880799438801
299,9,19100322269161664762699
610,8,19170731299728100000000
611,8,19423598036535983659681
612,8,19679378428815013380096
300,9,19683000000000000000000
613,8,19938101205828371332321
170,10,20159939004490000000000
614,8,20199795332516287488256
301,9,20281424743202871242701
615,8,20464490011040187890625
616,8,20732214682334418436096
302,9,20895967619684767411712
617,8,21002999027665568907841
618,8,21276872970199422034176
171,10,21377706189197971362201
303,9,21527007222246275614383
619,8,21553866676575552390241
620,8,21834010558489600000000
621,8,22117335274283243536161
304,9,22174929740517389369344
622,8,22403871730541898055936
172,10,22661281678134344679424
623,8,22693651083700162250881
305,9,22840129087566681640625
624,8,22986704741655040229376
625,8,23283064365386962890625
306,9,23523007028192945680896
626,8,23582761870588633989376
627,8,23885829429301726030881
173,10,24013807852610947920649
628,8,24192299471561451175936
307,9,24223973308916016636307
629,8,24502204687049032376161
630,8,24815578026752100000000
308,9,24943445789683597180928
631,8,25132452704633039250241
174,10,25438557613203014501376
632,8,25452862199305313714176
309,9,25681850577311021127189
633,8,25776840255717790427841
634,8,26104420886847091876096
635,8,26435638375398000390625
310,9,26439622160671000000000
636,8,26770527275511940448256
175,10,26938938999176025390625
637,8,27109122414483564412321
311,9,27217203547650508966391
638,8,27451458894485467300096
639,8,27797572094301056199681
312,9,28015046403892080279552
640,8,28147497671065600000000
641,8,28501271562015485137921
176,10,28518499943362777317376
313,9,28833611193336884526073
642,8,28858929986245703106816
643,8,29220509446475595511201
644,8,29586046730822882492416
314,9,29673367320587092457984
645,8,29955578914586000390625
177,10,30180933165649574087649
646,8,30329143362034774548736
315,9,30534793275105123046875
647,8,30706777728209453204161
648,8,31088519960728128454656
316,9,31418376777267496615936
649,8,31474408301602570324801
650,8,31864481289062500000000
178,10,31930081208285372007424
651,8,32258777759388328335201
317,9,32324614926291125487197
652,8,32657336848752385785856
653,8,33060197995068669948961
318,9,33254014350049988525568
654,8,33467400939851136942336
179,10,33769941616283277616201
655,8,33878985730080562890625
319,9,34207091356800250268479
656,8,34294992720080001826816
657,8,34715462573398866358401
658,8,35140436264705657487616
320,9,35184372088832000000000
659,8,35569955081689370015521
180,10,35704672266240000000000
660,8,36004060626969600000000
321,9,36186392678065901161281
661,8,36442794820015380778081
662,8,36886199899072774103296
322,9,37213699403613156884992
663,8,37334318423101242989121
181,10,37738596846955704499801
664,8,37787193273718832889856
665,8,38244867657156187890625
323,9,38266848851317313200163
666,8,38707385106219428618496
667,8,39174789482261918627041
324,9,39346408075296537575424
668,8,39647124977164946046976
182,10,39876210495294203290624
669,8,40124436115327347335841
325,9,40452954761505126953125
670,8,40606767755664100000000
671,8,41094165093613911202561
672,8,41586673663155829211136
326,9,41587077393333116274176
673,8,42084339338834904679681
183,10,42122185590781554706449
674,8,42587208337796928798976
327,9,42749375419262975703687
675,8,43095327221832275390625
676,8,43608742899428874059776
328,9,43940459422602502340608
677,8,44127502627834341562081
184,10,44481377712499930955776
678,8,44651654015127298580736
329,9,45160951293313130130569
679,8,45181245022297899149761
680,8,45716323965337600000000
681,8,46256939517338197144641
330,9,46411484401953000000000
682,8,46803140710600157061376
185,10,46958831761893056640625
683,8,47354976938750269868641
331,9,47692703775754250891371
684,8,47912497958868651933696
685,8,48475753893625125390625
332,9,49005266276854111404032
686,8,49044795233425002086656
186,10,49559788255159621886976
687,8,49619672838564299515521
688,8,50200437941394416336896
333,9,50349840782699491132653
689,8,50787142148496295121281
690,8,51379837442864100000000
334,9,51727108368644890545664
691,8,51978576186098436940321
187,10,52289689788971837545849
692,8,52583411120609144406016
335,9,53137762492763568359375
693,8,53194395371827682204001
694,8,53811582450429146358016
695,8,54435026254563937890625
336,9,54582509182892025839616
696,8,55064781072099113435136
188,10,55154187683317729460224
697,8,55700901582869445639361
337,9,56062067225927988301777
698,8,56343442860938221363456
699,8,56992460376867805714401
338,9,57577168359402185282048
700,8,57648010000000000000000
189,10,58159148805327867842601
701,8,58310148000746221725601
702,8,58978931052887534797056
339,9,59128557465344352417459
703,8,59654416235884558133761
704,8,60336661037197280935936
340,9,60716992766464000000000
705,8,61025723354614812890625
190,10,61310662578010000000000
706,8,61721661498595097641216
341,9,62343246024666615460661
707,8,62424534194614617885601
708,8,63134400585528120508416
709,8,63851320233938390193121
342,9,64008102741926089692672
710,8,64575353124576100000000
191,10,64615048177878503606401
711,8,65306559666689767436481
343,9,65712362363534280139543
712,8,66045000696445844586496
713,8,66790737479338970905921
344,9,67456838483748746952704
714,8,67543831712612417331456
192,10,68078861925529707085824
715,8,68304345527688750390625
716,8,69072341492610745040896
345,9,69242359053859822265625
717,8,69847882614492575006241
718,8,70631032341981309419776
346,9,71069766592698296736256
719,8,71421854567728744621441
193,10,71708904873278937061249
720,8,72220413630873600000000
347,9,72939918399605131977467
721,8,73026774319534106808961
722,8,73841001873311018926336
723,8,74663161985801074568481
348,9,74853686769884732325888
724,8,75493320807120938008576
194,10,75512230594040653874176
725,8,76331544946441650390625
349,9,76811959212763434593149
726,8,77177901474533618770176
727,8,78032457926322172553281
350,9,78815638671875000000000
728,8,78895282303453716545536
195,10,79496153175699228515625
729,8,79766443076872509863361
730,8,80646009189408100000000
351,9,80865643748295018413151
731,8,81534050058373441379041
732,8,82430635578173727768576
352,9,82962908926146261286912
733,8,83335836122925967969441
196,10,83668255425284801560576
734,8,84249722549089334231296
353,9,85108384800797146356833
735,8,85172366198106312890625
736,8,86103838899054686765056
737,8,87044212971310378878721
354,9,87303038309675604140544
738,8,87993561227221187133696
197,10,88036397287336250493049
739,8,88951956974791439582881
355,9,89547852965720763671875
740,8,89919474020377600000000
741,8,90896186671394853482721
356,9,91843829093495002628096
742,8,91882169739034701865216
198,10,92608724480901579777024
743,8,92877498540993598756801
744,8,93882248904212654063616
357,9,94191984067979035106757
745,8,94896497167628437890625
746,8,95920320184934913761536
358,9,96593352556072838768128
747,8,96953795327356531134561
199,10,97393677359695041798001
748,8,97997000486432507232256
359,9,99048986760825351881639
749,8,99050014076812328244001
